<?xml version="1.0" encoding="UTF-8"?>
<svg width="32px" height="32px" viewBox="0 0 32 32" version="1.1" xmlns="http://www.w3.org/2000/svg" xmlns:xlink="http://www.w3.org/1999/xlink">
    <!-- Generator: Sketch 41.1 (35376) - http://www.bohemiancoding.com/sketch -->
    <title>next_track</title>
    <desc>Created with Sketch.</desc>
    <defs></defs>
    <g id="Symbols" stroke="none" stroke-width="1" fill="none" fill-rule="evenodd">
        <g id="next_track" stroke="#4DBFBF" stroke-width="2">
            <g id="Group-3" transform="translate(1.000000, 1.000000)">
                <circle id="Oval-Copy" cx="15" cy="15" r="15"></circle>
                <g id="search" transform="translate(11.666667, 11.000000)" stroke-linecap="round" stroke-linejoin="round">
                    <polyline id="Rectangle-3" points="0 0 5.95523119 4 0 8"></polyline>
                    <path d="M6.06444487,0.0472011683 L6.06444487,7.9962375" id="Path-11"></path>
                </g>
            </g>
        </g>
    </g>
</svg>