<?xml version="1.0" encoding="UTF-8"?>
<svg width="48px" height="48px" viewBox="0 0 48 48" version="1.1" xmlns="http://www.w3.org/2000/svg" xmlns:xlink="http://www.w3.org/1999/xlink">
    <!-- Generator: Sketch 41.1 (35376) - http://www.bohemiancoding.com/sketch -->
    <title>pause</title>
    <desc>Created with Sketch.</desc>
    <defs></defs>
    <g id="Symbols" stroke="none" stroke-width="1" fill="none" fill-rule="evenodd">
        <g id="pause" stroke="#4DBFBF" stroke-width="2">
            <g id="Group-2" transform="translate(1.000000, 1.000000)">
                <circle id="Oval" cx="23" cy="23" r="23"></circle>
                <g id="search-copy-4" transform="translate(19.000000, 16.000000)" stroke-linecap="round" stroke-linejoin="round">
                    <path d="M-1.77635684e-15,0 L-1.77635684e-15,14.5 L-1.77635684e-15,0 Z" id="Rectangle-3"></path>
                    <path d="M8,0 L8,14.5 L8,0 Z" id="Rectangle-3-Copy"></path>
                </g>
            </g>
        </g>
    </g>
</svg>