<?xml version="1.0" encoding="UTF-8"?>
<svg width="32px" height="32px" viewBox="0 0 32 32" version="1.1" xmlns="http://www.w3.org/2000/svg" xmlns:xlink="http://www.w3.org/1999/xlink">
    <!-- Generator: Sketch 41.1 (35376) - http://www.bohemiancoding.com/sketch -->
    <title>running_gray</title>
    <desc>Created with Sketch.</desc>
    <defs></defs>
    <g id="Symbols" stroke="none" stroke-width="1" fill="none" fill-rule="evenodd" stroke-linecap="round" opacity="0.300000012" stroke-linejoin="round">
        <g id="running_gray" stroke="#424D63" stroke-width="2">
            <g id="Group" transform="translate(1.000000, 1.500000)">
                <path d="M9.21817784,0.24622492 L0.414235355,11.5894115 L19.6451755,28.5895665 L29.2307072,28.5895665 L29.3206923,23.347925 C29.3206923,23.347925 28.2673115,19.4577045 23.0264222,19.9004484 C22.1171882,14.4178957 20.1426323,4.58434251 20.1426323,4.58434251 L15.1333162,4.52207493 L9.21817784,0.24622492 Z M15.8532267,9.97496863 L21.2431412,9.97496863 M5.89638667,5.93372606 C7.57982746,7.52383497 10.6032446,10.8502451 6.3893279,15.6267882" id="Path-8"></path>
                <path d="M16.2142135,14.4470483 L22.0745171,14.4470483" id="Path-9"></path>
            </g>
        </g>
    </g>
</svg>