<?xml version="1.0" encoding="UTF-8"?>
<svg width="32px" height="32px" viewBox="0 0 32 32" version="1.1" xmlns="http://www.w3.org/2000/svg" xmlns:xlink="http://www.w3.org/1999/xlink">
    <!-- Generator: Sketch 41.1 (35376) - http://www.bohemiancoding.com/sketch -->
    <title>tags_gray</title>
    <desc>Created with Sketch.</desc>
    <defs></defs>
    <g id="Symbols" stroke="none" stroke-width="1" fill="none" fill-rule="evenodd" stroke-linecap="round" opacity="0.300000012" stroke-linejoin="round">
        <g id="filter_gray" stroke="#424D63" stroke-width="2">
            <g id="Group-4" transform="translate(4.000000, 5.000000)">
                <path d="M0,17.5083306 L11.7011302,17.4916694 M20.1269531,17.5089111 L24,17.5083306" id="Path-3-Copy"></path>
                <circle id="Oval-2-Copy" cx="16" cy="17.5" r="4"></circle>
                <path d="M0,4.5 L3.88396515,4.5 M12.3208001,4.5397279 L24,4.5" id="Path-3"></path>
                <circle id="Oval-2" cx="8" cy="4.5" r="4"></circle>
            </g>
        </g>
    </g>
</svg>